build/sync_fifo_waveform.vcd
$version Generated by VerilatedVcd $end
$timescale 1ps $end
 $scope module sync_fifo_tb $end
  $var wire 32 H DATA_WIDTH [31:0] $end
  $var wire 32 I FIFO_DEPTH [31:0] $end
  $var wire 32 J ALMOST_FULL_THRESHOLD [31:0] $end
  $var wire 32 K ALMOST_EMPTY_THRESHOLD [31:0] $end
  $var wire 64 L MEMORY_TYPE [63:0] $end
  $var wire 1 ? clk $end
  $var wire 1 @ rst $end
  $var wire 1 A wr_en $end
  $var wire 32 B wr_data [31:0] $end
  $var wire 1 7 full $end
  $var wire 1 8 almost_full $end
  $var wire 1 C rd_en $end
  $var wire 32 9 rd_data [31:0] $end
  $var wire 1 : empty $end
  $var wire 1 ; almost_empty $end
  $var wire 5 < wr_count [4:0] $end
  $var wire 5 < rd_count [4:0] $end
  $var wire 32 D test_pass_count [31:0] $end
  $var wire 32 E test_fail_count [31:0] $end
  $var wire 32 F test_total_count [31:0] $end
  $scope module dut $end
   $var wire 32 H DATA_WIDTH [31:0] $end
   $var wire 32 I FIFO_DEPTH [31:0] $end
   $var wire 32 J ALMOST_FULL_THRESHOLD [31:0] $end
   $var wire 32 K ALMOST_EMPTY_THRESHOLD [31:0] $end
   $var wire 64 L MEMORY_TYPE [63:0] $end
   $var wire 1 ? clk_i $end
   $var wire 1 @ rst_i $end
   $var wire 1 A wr_en_i $end
   $var wire 32 B wr_data_i [31:0] $end
   $var wire 1 7 full_o $end
   $var wire 1 8 almost_full_o $end
   $var wire 1 C rd_en_i $end
   $var wire 32 9 rd_data_o [31:0] $end
   $var wire 1 : empty_o $end
   $var wire 1 ; almost_empty_o $end
   $var wire 5 < wr_count_o [4:0] $end
   $var wire 5 < rd_count_o [4:0] $end
   $var wire 32 K ADDR_WIDTH [31:0] $end
   $var wire 32 N COUNT_WIDTH [31:0] $end
   $var wire 4 = wr_ptr [3:0] $end
   $var wire 4 > rd_ptr [3:0] $end
   $var wire 4 2 wr_ptr_next [3:0] $end
   $var wire 4 3 rd_ptr_next [3:0] $end
   $var wire 5 < fifo_count [4:0] $end
   $var wire 5 4 fifo_count_next [4:0] $end
   $var wire 1 5 wr_en_valid $end
   $var wire 1 6 rd_en_valid $end
   $scope module genblk1 $end
    $var wire 32 " memory[0] [31:0] $end
    $var wire 32 # memory[1] [31:0] $end
    $var wire 32 $ memory[2] [31:0] $end
    $var wire 32 % memory[3] [31:0] $end
    $var wire 32 & memory[4] [31:0] $end
    $var wire 32 ' memory[5] [31:0] $end
    $var wire 32 ( memory[6] [31:0] $end
    $var wire 32 ) memory[7] [31:0] $end
    $var wire 32 * memory[8] [31:0] $end
    $var wire 32 + memory[9] [31:0] $end
    $var wire 32 , memory[10] [31:0] $end
    $var wire 32 - memory[11] [31:0] $end
    $var wire 32 . memory[12] [31:0] $end
    $var wire 32 / memory[13] [31:0] $end
    $var wire 32 0 memory[14] [31:0] $end
    $var wire 32 1 memory[15] [31:0] $end
    $var wire 32 G i [31:0] $end
   $upscope $end
  $upscope $end
 $upscope $end
$enddefinitions $end


#0
b00000000000000000000000000000000 "
b00000000000000000000000000000000 #
b00000000000000000000000000000000 $
b00000000000000000000000000000000 %
b00000000000000000000000000000000 &
b00000000000000000000000000000000 '
b00000000000000000000000000000000 (
b00000000000000000000000000000000 )
b00000000000000000000000000000000 *
b00000000000000000000000000000000 +
b00000000000000000000000000000000 ,
b00000000000000000000000000000000 -
b00000000000000000000000000000000 .
b00000000000000000000000000000000 /
b00000000000000000000000000000000 0
b00000000000000000000000000000000 1
b0000 2
b0000 3
b00000 4
05
06
07
08
b00000000000000000000000000000000 9
1:
1;
b00000 <
b0000 =
b0000 >
0?
1@
0A
b00000000000000000000000000000000 B
0C
b00000000000000000000000000000000 D
b00000000000000000000000000000000 E
b00000000000000000000000000000000 F
b00000000000000000000000000010000 G
b00000000000000000000000000100000 H
b00000000000000000000000000010000 I
b00000000000000000000000000001100 J
b00000000000000000000000000000100 K
b0101001001000101010001110100100101010011010101000100010101010010 L
b00000000000000000000000000000101 N
#5000
1?
#10000
0?
#15000
1?
#16000
0@
#20000
0?
#25000
1?
#26000
b00000000000000000000000000000001 F
#30000
0?
#35000
1?
#36000
b0001 2
b00001 4
15
1A
b10100101101001011010010110100101 B
#40000
0?
#45000
b10100101101001011010010110100101 "
b0010 2
b00010 4
0:
b00001 <
b0001 =
1?
#46000
b0001 2
b00001 4
05
0A
#50000
0?
#55000
b10100101101001011010010110100101 9
1?
#56000
b0001 3
b00000 4
16
1C
#60000
0?
#65000
06
1:
b00000 <
b0001 >
1?
#66000
0C
b00000000000000000000000000000001 D
b00000000000000000000000000000010 F
#70000
0?
#75000
b00000000000000000000000000000000 9
1?
#76000
b0010 2
b00001 4
15
1A
b00000000000000000000000000000001 B
#80000
0?
#85000
b00000000000000000000000000000001 #
b0011 2
b00010 4
0:
b00001 <
b0010 =
1?
#86000
b0010 2
b00001 4
05
0A
#90000
0?
#95000
b00000000000000000000000000000001 9
1?
#96000
b0011 2
b00010 4
15
1A
b00000000000000000000000000000010 B
#100000
0?
#105000
b00000000000000000000000000000010 $
b0100 2
b00011 4
b00010 <
b0011 =
1?
#106000
b0011 2
b00010 4
05
0A
#110000
0?
#115000
1?
#116000
b0100 2
b00011 4
15
1A
b00000000000000000000000000000011 B
#120000
0?
#125000
b00000000000000000000000000000011 %
b0101 2
b00100 4
b00011 <
b0100 =
1?
#126000
b0100 2
b00011 4
05
0A
#130000
0?
#135000
1?
#136000
b0101 2
b00100 4
15
1A
b00000000000000000000000000000100 B
#140000
0?
#145000
b00000000000000000000000000000100 &
b0110 2
b00101 4
b00100 <
b0101 =
1?
#146000
b0101 2
b00100 4
05
0A
#150000
0?
#155000
1?
#156000
b0110 2
b00101 4
15
1A
b00000000000000000000000000000101 B
#160000
0?
#165000
b00000000000000000000000000000101 '
b0111 2
b00110 4
0;
b00101 <
b0110 =
1?
#166000
b0110 2
b00101 4
05
0A
#170000
0?
#175000
1?
#176000
b0111 2
b00110 4
15
1A
b00000000000000000000000000000110 B
#180000
0?
#185000
b00000000000000000000000000000110 (
b1000 2
b00111 4
b00110 <
b0111 =
1?
#186000
b0111 2
b00110 4
05
0A
#190000
0?
#195000
1?
#196000
b1000 2
b00111 4
15
1A
b00000000000000000000000000000111 B
#200000
0?
#205000
b00000000000000000000000000000111 )
b1001 2
b01000 4
b00111 <
b1000 =
1?
#206000
b1000 2
b00111 4
05
0A
#210000
0?
#215000
1?
#216000
b1001 2
b01000 4
15
1A
b00000000000000000000000000001000 B
#220000
0?
#225000
b00000000000000000000000000001000 *
b1010 2
b01001 4
b01000 <
b1001 =
1?
#226000
b1001 2
b01000 4
05
0A
#230000
0?
#235000
1?
#236000
b1010 2
b01001 4
15
1A
b00000000000000000000000000001001 B
#240000
0?
#245000
b00000000000000000000000000001001 +
b1011 2
b01010 4
b01001 <
b1010 =
1?
#246000
b1010 2
b01001 4
05
0A
#250000
0?
#255000
1?
#256000
b1011 2
b01010 4
15
1A
b00000000000000000000000000001010 B
#260000
0?
#265000
b00000000000000000000000000001010 ,
b1100 2
b01011 4
b01010 <
b1011 =
1?
#266000
b1011 2
b01010 4
05
0A
#270000
0?
#275000
1?
#276000
b1100 2
b01011 4
15
1A
b00000000000000000000000000001011 B
#280000
0?
#285000
b00000000000000000000000000001011 -
b1101 2
b01100 4
b01011 <
b1100 =
1?
#286000
b1100 2
b01011 4
05
0A
#290000
0?
#295000
1?
#296000
b1101 2
b01100 4
15
1A
b00000000000000000000000000001100 B
#300000
0?
#305000
b00000000000000000000000000001100 .
b1110 2
b01101 4
18
b01100 <
b1101 =
1?
#306000
b1101 2
b01100 4
05
0A
#310000
0?
#315000
1?
#316000
b1110 2
b01101 4
15
1A
b00000000000000000000000000001101 B
#320000
0?
#325000
b00000000000000000000000000001101 /
b1111 2
b01110 4
b01101 <
b1110 =
1?
#326000
b1110 2
b01101 4
05
0A
#330000
0?
#335000
1?
#336000
b1111 2
b01110 4
15
1A
b00000000000000000000000000001110 B
#340000
0?
#345000
b00000000000000000000000000001110 0
b0000 2
b01111 4
b01110 <
b1111 =
1?
#346000
b1111 2
b01110 4
05
0A
#350000
0?
#355000
1?
#356000
b0000 2
b01111 4
15
1A
b00000000000000000000000000001111 B
#360000
0?
#365000
b00000000000000000000000000001111 1
b0001 2
b10000 4
b01111 <
b0000 =
1?
#366000
b0000 2
b01111 4
05
0A
#370000
0?
#375000
1?
#376000
b0001 2
b10000 4
15
1A
b00000000000000000000000000010000 B
#380000
0?
#385000
b00000000000000000000000000010000 "
05
17
b10000 <
b0001 =
1?
#386000
0A
#390000
0?
#395000
1?
#396000
1A
b11011110101011011011111011101111 B
#400000
0?
#405000
1?
#406000
0A
#410000
0?
#415000
1?
#416000
b0010 3
b01111 4
16
1C
#420000
0?
#425000
b0011 3
b01110 4
07
b01111 <
b0010 >
1?
#426000
b0010 3
b01111 4
06
0C
#430000
0?
#435000
b00000000000000000000000000000010 9
1?
#436000
b0011 3
b01110 4
16
1C
#440000
0?
#445000
b0100 3
b01101 4
b01110 <
b0011 >
1?
#446000
b0011 3
b01110 4
06
0C
#450000
0?
#455000
b00000000000000000000000000000011 9
1?
#456000
b0100 3
b01101 4
16
1C
#460000
0?
#465000
b0101 3
b01100 4
b01101 <
b0100 >
1?
#466000
b0100 3
b01101 4
06
0C
#470000
0?
#475000
b00000000000000000000000000000100 9
1?
#476000
b0101 3
b01100 4
16
1C
#480000
0?
#485000
b0110 3
b01011 4
b01100 <
b0101 >
1?
#486000
b0101 3
b01100 4
06
0C
#490000
0?
#495000
b00000000000000000000000000000101 9
1?
#496000
b0110 3
b01011 4
16
1C
#500000
0?
#505000
b0111 3
b01010 4
08
b01011 <
b0110 >
1?
#506000
b0110 3
b01011 4
06
0C
#510000
0?
#515000
b00000000000000000000000000000110 9
1?
#516000
b0111 3
b01010 4
16
1C
#520000
0?
#525000
b1000 3
b01001 4
b01010 <
b0111 >
1?
#526000
b0111 3
b01010 4
06
0C
#530000
0?
#535000
b00000000000000000000000000000111 9
1?
#536000
b1000 3
b01001 4
16
1C
#540000
0?
#545000
b1001 3
b01000 4
b01001 <
b1000 >
1?
#546000
b1000 3
b01001 4
06
0C
#550000
0?
#555000
b00000000000000000000000000001000 9
1?
#556000
b1001 3
b01000 4
16
1C
#560000
0?
#565000
b1010 3
b00111 4
b01000 <
b1001 >
1?
#566000
b1001 3
b01000 4
06
0C
#570000
0?
#575000
b00000000000000000000000000001001 9
1?
#576000
b1010 3
b00111 4
16
1C
#580000
0?
#585000
b1011 3
b00110 4
b00111 <
b1010 >
1?
#586000
b1010 3
b00111 4
06
0C
#590000
0?
#595000
b00000000000000000000000000001010 9
1?
#596000
b1011 3
b00110 4
16
1C
#600000
0?
#605000
b1100 3
b00101 4
b00110 <
b1011 >
1?
#606000
b1011 3
b00110 4
06
0C
#610000
0?
#615000
b00000000000000000000000000001011 9
1?
#616000
b1100 3
b00101 4
16
1C
#620000
0?
#625000
b1101 3
b00100 4
b00101 <
b1100 >
1?
#626000
b1100 3
b00101 4
06
0C
#630000
0?
#635000
b00000000000000000000000000001100 9
1?
#636000
b1101 3
b00100 4
16
1C
#640000
0?
#645000
b1110 3
b00011 4
1;
b00100 <
b1101 >
1?
#646000
b1101 3
b00100 4
06
0C
#650000
0?
#655000
b00000000000000000000000000001101 9
1?
#656000
b1110 3
b00011 4
16
1C
#660000
0?
#665000
b1111 3
b00010 4
b00011 <
b1110 >
1?
#666000
b1110 3
b00011 4
06
0C
#670000
0?
#675000
b00000000000000000000000000001110 9
1?
#676000
b1111 3
b00010 4
16
1C
#680000
0?
#685000
b0000 3
b00001 4
b00010 <
b1111 >
1?
#686000
b1111 3
b00010 4
06
0C
#690000
0?
#695000
b00000000000000000000000000001111 9
1?
#696000
b0000 3
b00001 4
16
1C
#700000
0?
#705000
b0001 3
b00000 4
b00001 <
b0000 >
1?
#706000
b0000 3
b00001 4
06
0C
#710000
0?
#715000
b00000000000000000000000000010000 9
1?
#716000
b0001 3
b00000 4
16
1C
#720000
0?
#725000
06
1:
b00000 <
b0001 >
1?
#726000
0C
b00000000000000000000000000000010 D
b00000000000000000000000000000011 F
#730000
0?
#735000
b00000000000000000000000000000001 9
1?
#736000
1C
#740000
0?
#745000
1?
#746000
0C
#750000
0?
#755000
1?
#756000
b0010 2
b00001 4
15
1A
b00010010001101000101011001111000 B
#760000
0?
#765000
b00010010001101000101011001111000 #
b0011 2
b00010 4
0:
b00001 <
b0010 =
1?
#766000
b0010 2
b00001 4
05
0A
#770000
0?
#775000
b00010010001101000101011001111000 9
1?
#776000
b0010 3
b00000 4
16
1C
#780000
0?
#785000
06
1:
b00000 <
b0010 >
1?
#786000
0C
b00000000000000000000000000000011 D
#790000
0?
#795000
b00000000000000000000000000000010 9
1?
